…
12. Which country had the largest overall catch in the year 2000?

```r
fisheries_tidy2 %>% 
  filter(year == 2000) %>% 
  group_by(country) %>% 
  summarize(catch = sum(catch, na.rm = T)) %>% 
  arrange(desc(catch))
```

```
## # A tibble: 204 x 2
##    country                     catch
##    <fct>                       <dbl>
##  1 China                    12695472
##  2 Peru                     10625010
##  3 Japan                     4921013
##  4 United States of America  4692229
##  5 Chile                     4297928
##  6 Indonesia                 3761769
##  7 Russianederation          3678828
##  8 Thailand                  2795719
##  9 India                     2760632
## 10 Norway                    2698506
## # … with 194 more rows
```
…
13. Which country caught the most sardines (_Sardina_) between the years 1990-2000?

```r
fisheries_tidy2 %>% 
  select(country, catch, year, ASFIS_sciname) %>%
  filter(str_detect(ASFIS_sciname, "Sardina")) %>% 
  filter(year <= 2000 & year >= 1990) %>% 
  group_by(country) %>% 
  summarize(catch = sum(catch, na.rm = T)) %>% 
  arrange(desc(catch, by.group = TRUE))
```

```
## # A tibble: 46 x 2
##    country            catch
##    <fct>              <dbl>
##  1 Morocco          4785190
##  2 Spain            2056817
##  3 Russianederation 1035139
##  4 Portugal          926318
##  5 Ukraine           784730
##  6 Algeria           631733
##  7 Italy             377907
##  8 Turkey            273565
##  9 France            263871
## 10 Denmark           242017
## # … with 36 more rows
```
Morocco had the largest catch of 4785190 tonnes. 

14. Which five countries caught the most cephalopods between 2008-2012?

```r
fisheries_tidy2 %>% 
  filter(str_detect(ISSCAAP_spgroupname, "Squids")) %>% 
  filter(year <= 2012 & year >= 2008) %>% 
  group_by(country) %>% 
  summarize(catch = sum(catch, na.rm = T)) %>% 
  arrange(desc(catch, by.group = TRUE))
```

```
## # A tibble: 139 x 2
##    country                    catch
##    <fct>                      <dbl>
##  1 China                    4785139
##  2 Peru                     2274232
##  3 Japan                    1644085
##  4 Korea, Republic of       1535454
##  5 Viet Nam                 1292000
##  6 Chile                     723186
##  7 Indonesia                 684567
##  8 United States of America  613400
##  9 Thailand                  603529
## 10 Taiwan Province of China  593638
## # … with 129 more rows
```
China caught the most cephalopods betwen 2008-2012. 

15. Given the top five countries from question 14 above, which species was the highest catch total? The lowest?

```r
fisheries_tidy2 %>% 
  filter(str_detect(ISSCAAP_spgroupname, "Squids")) %>% 
  filter(year <= 2012 & year >= 2008) %>% 
  group_by(ASFIS_sciname) %>% 
  summarize(catch_total=sum(catch, na.rm=T)) %>% 
  arrange(desc(catch_total))
```

```
## # A tibble: 35 x 2
##    ASFIS_sciname               catch_total
##    <fct>                             <dbl>
##  1 Dosidicus gigas                 4211138
##  2 Loliginidae, Ommastrephidae     2951507
##  3 Cephalopoda                     2040955
##  4 Todarodes pacificus             1936561
##  5 Illex argentinus                1834620
##  6 Octopodidae                     1497654
##  7 Sepiidae, Sepiolidae            1338968
##  8 Loligo spp                      1293727
##  9 Loligo opalescens                477536
## 10 Loligo gahi                      317535
## # … with 25 more rows
```
Dosidicus gigas had the highest catch total of 4211138 tons. 


```r
fisheries_tidy2 %>% 
  filter(str_detect(ISSCAAP_spgroupname, "Squids")) %>% 
  filter(year <= 2012 & year >= 2008) %>% 
  group_by(ASFIS_sciname) %>% 
  summarize(catch_total=sum(catch, na.rm=T)) %>% 
  arrange(catch_total)
```

```
## # A tibble: 35 x 2
##    ASFIS_sciname        catch_total
##    <fct>                      <dbl>
##  1 Eledone moschata               0
##  2 Gonatidae                      0
##  3 Moroteuthis robustus           0
##  4 Pareledone spp                 0
##  5 Todarodes filippovae           1
##  6 Martialia hyadesi              4
##  7 Moroteuthis ingens           194
##  8 Loligo vulgaris              398
##  9 Eledone cirrhosa             920
## 10 Loligo duvauceli            1843
## # … with 25 more rows
```
…
17. Use the data to do at least one exploratory analysis of your choice. What can you learn?

I am going to explore which country caught the most variety of coastal fish. 

```r
coastal_fish %>% 
  group_by(country) %>% 
  summarize(types_of_fish = n_distinct(ASFIS_sciname)) %>% 
  arrange(desc(types_of_fish))
```

```
## # A tibble: 150 x 2
##    country                  types_of_fish
##    <fct>                            <int>
##  1 United States of America            84
##  2 Saudi Arabia                        76
##  3 Spain                               66
##  4 Portugal                            63
##  5 Brazil                              42
##  6 France                              42
##  7 Senegal                             42
##  8 Un. Sov. Soc. Rep.                  41
##  9 Korea, Republic of                  40
## 10 Mexico                              39
## # … with 140 more rows
```
…
