…
## Three versions of the `gampminder` data  
We will use three versions of the `gapminder` data to perform analyses and (eventually) make plots. For now, make the following long and wide versions of `gapminder`.

## `gapminder`
Notice that `gapminder` has one row for each country and year, and one column for each measurement (lifeExp, pop, gdpPercap).

```r
gapminder <- gapminder
gapminder
```

```
## # A tibble: 1,704 x 6
##    country     continent  year lifeExp      pop gdpPercap
##    <fct>       <fct>     <int>   <dbl>    <int>     <dbl>
##  1 Afghanistan Asia       1952    28.8  8425333      779.
##  2 Afghanistan Asia       1957    30.3  9240934      821.
##  3 Afghanistan Asia       1962    32.0 10267083      853.
##  4 Afghanistan Asia       1967    34.0 11537966      836.
##  5 Afghanistan Asia       1972    36.1 13079460      740.
##  6 Afghanistan Asia       1977    38.4 14880372      786.
##  7 Afghanistan Asia       1982    39.9 12881816      978.
##  8 Afghanistan Asia       1987    40.8 13867957      852.
##  9 Afghanistan Asia       1992    41.7 16317921      649.
## 10 Afghanistan Asia       1997    41.8 22227415      635.
## # … with 1,694 more rows
```

## Long `gapminder`
**3. Make a new data frame `gapminder_long` that combines the three measured values (lifeExp, pop, gdpPercap) into a single column associated with a country and year.**

```r
gapminder_long <- gapminder %>% 
  pivot_longer(-c(country, year, continent),
               names_to = "measured_value", 
               values_to = "observation_value") %>% 
  unite("observation_year", measured_value, year, sep = "_") 
gapminder_long
```

```
## # A tibble: 5,112 x 4
##    country     continent observation_year observation_value
##    <fct>       <fct>     <chr>                        <dbl>
##  1 Afghanistan Asia      lifeExp_1952                  28.8
##  2 Afghanistan Asia      pop_1952                 8425333  
##  3 Afghanistan Asia      gdpPercap_1952               779. 
##  4 Afghanistan Asia      lifeExp_1957                  30.3
##  5 Afghanistan Asia      pop_1957                 9240934  
##  6 Afghanistan Asia      gdpPercap_1957               821. 
##  7 Afghanistan Asia      lifeExp_1962                  32.0
##  8 Afghanistan Asia      pop_1962                10267083  
##  9 Afghanistan Asia      gdpPercap_1962               853. 
## 10 Afghanistan Asia      lifeExp_1967                  34.0
## # … with 5,102 more rows
```

**4. For practice, use `pivot_wider()` to put the data back into the original `gapminder` format.**

```r
gapminder_long %>% 
  separate(observation_year, into=c("observation", "year"), sep = "_") %>% 
  pivot_wider(names_from = observation,
              values_from = observation_value) 
```

```
## # A tibble: 1,704 x 6
##    country     continent year  lifeExp      pop gdpPercap
##    <fct>       <fct>     <chr>   <dbl>    <dbl>     <dbl>
##  1 Afghanistan Asia      1952     28.8  8425333      779.
##  2 Afghanistan Asia      1957     30.3  9240934      821.
##  3 Afghanistan Asia      1962     32.0 10267083      853.
##  4 Afghanistan Asia      1967     34.0 11537966      836.
##  5 Afghanistan Asia      1972     36.1 13079460      740.
##  6 Afghanistan Asia      1977     38.4 14880372      786.
##  7 Afghanistan Asia      1982     39.9 12881816      978.
##  8 Afghanistan Asia      1987     40.8 13867957      852.
##  9 Afghanistan Asia      1992     41.7 16317921      649.
## 10 Afghanistan Asia      1997     41.8 22227415      635.
## # … with 1,694 more rows
```

## Wide `gapminder`
**5. Make a new data frame `gapminder_wide` that has all observations for each country in a single row. The column names should be named as "observation_year". Arrange them sequentially by year.**

```r
gapminder_wide <- gapminder_long %>% 
   pivot_wider(names_from = observation_year, values_from = observation_value)
gapminder_wide
```

```
## # A tibble: 142 x 38
##    country continent lifeExp_1952 pop_1952 gdpPercap_1952 lifeExp_1957 pop_1957
##    <fct>   <fct>            <dbl>    <dbl>          <dbl>        <dbl>    <dbl>
##  1 Afghan… Asia              28.8  8425333           779.         30.3  9240934
##  2 Albania Europe            55.2  1282697          1601.         59.3  1476505
##  3 Algeria Africa            43.1  9279525          2449.         45.7 10270856
##  4 Angola  Africa            30.0  4232095          3521.         32.0  4561361
##  5 Argent… Americas          62.5 17876956          5911.         64.4 19610538
##  6 Austra… Oceania           69.1  8691212         10040.         70.3  9712569
##  7 Austria Europe            66.8  6927772          6137.         67.5  6965860
##  8 Bahrain Asia              50.9   120447          9867.         53.8   138655
##  9 Bangla… Asia              37.5 46886859           684.         39.3 51365468
## 10 Belgium Europe            68    8730405          8343.         69.2  8989111
## # … with 132 more rows, and 31 more variables: gdpPercap_1957 <dbl>,
## #   lifeExp_1962 <dbl>, pop_1962 <dbl>, gdpPercap_1962 <dbl>,
## #   lifeExp_1967 <dbl>, pop_1967 <dbl>, gdpPercap_1967 <dbl>,
## #   lifeExp_1972 <dbl>, pop_1972 <dbl>, gdpPercap_1972 <dbl>,
## #   lifeExp_1977 <dbl>, pop_1977 <dbl>, gdpPercap_1977 <dbl>,
## #   lifeExp_1982 <dbl>, pop_1982 <dbl>, gdpPercap_1982 <dbl>,
## #   lifeExp_1987 <dbl>, pop_1987 <dbl>, gdpPercap_1987 <dbl>,
## #   lifeExp_1992 <dbl>, pop_1992 <dbl>, gdpPercap_1992 <dbl>,
## #   lifeExp_1997 <dbl>, pop_1997 <dbl>, gdpPercap_1997 <dbl>,
…
**6. For practice, use `pivot_longer()` to put the data back into the original `gapminder` format. Hint: you can't do this in one step!**

```r
gapminder_wide %>% 
  pivot_longer(-c(country, continent),
               names_to = "observation_year",
               values_to = "observation_value") %>% 
  separate(observation_year, into=c("observation", "year"), sep = "_") %>% 
  pivot_wider(names_from = observation,
              values_from = observation_value)
```

```
## # A tibble: 1,704 x 6
##    country     continent year  lifeExp      pop gdpPercap
##    <fct>       <fct>     <chr>   <dbl>    <dbl>     <dbl>
##  1 Afghanistan Asia      1952     28.8  8425333      779.
##  2 Afghanistan Asia      1957     30.3  9240934      821.
##  3 Afghanistan Asia      1962     32.0 10267083      853.
##  4 Afghanistan Asia      1967     34.0 11537966      836.
##  5 Afghanistan Asia      1972     36.1 13079460      740.
##  6 Afghanistan Asia      1977     38.4 14880372      786.
##  7 Afghanistan Asia      1982     39.9 12881816      978.
##  8 Afghanistan Asia      1987     40.8 13867957      852.
##  9 Afghanistan Asia      1992     41.7 16317921      649.
## 10 Afghanistan Asia      1997     41.8 22227415      635.
## # … with 1,694 more rows
```
…
**10. For the years included in the data, how has life expectancy changed in each country between 1952-2007? How does this look in the USA only?**

```r
gapminder %>% 
  select(country, year, lifeExp)
```

```
## # A tibble: 1,704 x 3
##    country      year lifeExp
##    <fct>       <int>   <dbl>
##  1 Afghanistan  1952    28.8
##  2 Afghanistan  1957    30.3
##  3 Afghanistan  1962    32.0
##  4 Afghanistan  1967    34.0
##  5 Afghanistan  1972    36.1
##  6 Afghanistan  1977    38.4
##  7 Afghanistan  1982    39.9
##  8 Afghanistan  1987    40.8
##  9 Afghanistan  1992    41.7
## 10 Afghanistan  1997    41.8
## # … with 1,694 more rows
```
…
**13. Which countries had the smallest populations in 1952? How about in 2007?**  

```r
gapminder %>% 
  select(country, year, pop) %>% 
  filter(year == 1952) %>% 
  arrange(pop)
```

```
## # A tibble: 142 x 3
##    country                year    pop
##    <fct>                 <int>  <int>
##  1 Sao Tome and Principe  1952  60011
##  2 Djibouti               1952  63149
##  3 Bahrain                1952 120447
##  4 Iceland                1952 147962
##  5 Comoros                1952 153936
##  6 Kuwait                 1952 160000
##  7 Equatorial Guinea      1952 216964
##  8 Reunion                1952 257700
##  9 Gambia                 1952 284320
## 10 Swaziland              1952 290243
## # … with 132 more rows
```
In 1952, Sao Tome and Principe, Dijbouti, and Bahrain had the smallest populations. 


```r
gapminder %>% 
  select(country, year, pop) %>% 
  filter(year == 2007) %>% 
  arrange(pop)
```

```
## # A tibble: 142 x 3
##    country                year     pop
##    <fct>                 <int>   <int>
##  1 Sao Tome and Principe  2007  199579
##  2 Iceland                2007  301931
##  3 Djibouti               2007  496374
##  4 Equatorial Guinea      2007  551201
##  5 Montenegro             2007  684736
##  6 Bahrain                2007  708573
##  7 Comoros                2007  710960
##  8 Reunion                2007  798094
##  9 Trinidad and Tobago    2007 1056608
## 10 Swaziland              2007 1133066
## # … with 132 more rows
```
…
**15. Next, remove all of the countries from this list that are part of the Middle East and put them into a new object `gapminder_middleEast`. Add a new column to the data called "region" and make sure "Middle East" is specified for these countries.**

```r
gapminder_middleEast <- gapminder %>% 
  filter(country %in% c("Algeria", "Bahrain", "Egypt", "Iran", "Iraq", "Israel", "Jordan", "Kuwait", "Lebanon", "Libya", "Morocco", "Oman", "Qatar", "Saudi Arabia", "Syria", "Tunisia", "Turkey", "United Arab Emirates", "Yemen")) %>% 
  mutate(region = "Middle East")
gapminder_middleEast
```

```
## # A tibble: 192 x 7
##    country continent  year lifeExp      pop gdpPercap region     
##    <fct>   <fct>     <int>   <dbl>    <int>     <dbl> <chr>      
##  1 Algeria Africa     1952    43.1  9279525     2449. Middle East
##  2 Algeria Africa     1957    45.7 10270856     3014. Middle East
##  3 Algeria Africa     1962    48.3 11000948     2551. Middle East
##  4 Algeria Africa     1967    51.4 12760499     3247. Middle East
##  5 Algeria Africa     1972    54.5 14760787     4183. Middle East
##  6 Algeria Africa     1977    58.0 17152804     4910. Middle East
##  7 Algeria Africa     1982    61.4 20033753     5745. Middle East
##  8 Algeria Africa     1987    65.8 23254956     5681. Middle East
##  9 Algeria Africa     1992    67.7 26298373     5023. Middle East
## 10 Algeria Africa     1997    69.2 29072015     4797. Middle East
## # … with 182 more rows
```
…
